%YAML 1.1
%TAG !u! tag:unity3d.com,2011:
--- !u!29 &1
OcclusionCullingSettings:
  m_ObjectHideFlags: 0
  serializedVersion: 2
  m_OcclusionBakeSettings:
    smallestOccluder: 5
    smallestHole: 0.25
    backfaceThreshold: 100
  m_SceneGUID: 00000000000000000000000000000000
  m_OcclusionCullingData: {fileID: 0}
--- !u!104 &2
RenderSettings:
  m_ObjectHideFlags: 0
  serializedVersion: 9
  m_Fog: 0
  m_FogColor: {r: 0.5, g: 0.5, b: 0.5, a: 1}
  m_FogMode: 3
  m_FogDensity: 0.01
  m_LinearFogStart: 0
  m_LinearFogEnd: 300
  m_AmbientSkyColor: {r: 0.212, g: 0.227, b: 0.259, a: 1}
  m_AmbientEquatorColor: {r: 0.114, g: 0.125, b: 0.133, a: 1}
  m_AmbientGroundColor: {r: 0.047, g: 0.043, b: 0.035, a: 1}
  m_AmbientIntensity: 1
  m_AmbientMode: 3
  m_SubtractiveShadowColor: {r: 0.42, g: 0.478, b: 0.627, a: 1}
  m_SkyboxMaterial: {fileID: 0}
  m_HaloStrength: 0.5
  m_FlareStrength: 1
  m_FlareFadeSpeed: 3
  m_HaloTexture: {fileID: 0}
  m_SpotCookie: {fileID: 10001, guid: 0000000000000000e000000000000000, type: 0}
  m_DefaultReflectionMode: 0
  m_DefaultReflectionResolution: 128
  m_ReflectionBounces: 1
  m_ReflectionIntensity: 1
  m_CustomReflection: {fileID: 0}
  m_Sun: {fileID: 0}
  m_IndirectSpecularColor: {r: 0, g: 0, b: 0, a: 1}
  m_UseRadianceAmbientProbe: 0
--- !u!157 &3
LightmapSettings:
  m_ObjectHideFlags: 0
  serializedVersion: 11
  m_GIWorkflowMode: 1
  m_GISettings:
    serializedVersion: 2
    m_BounceScale: 1
    m_IndirectOutputScale: 1
    m_AlbedoBoost: 1
    m_EnvironmentLightingMode: 0
    m_EnableBakedLightmaps: 0
    m_EnableRealtimeLightmaps: 0
  m_LightmapEditorSettings:
    serializedVersion: 10
    m_Resolution: 2
    m_BakeResolution: 40
    m_AtlasSize: 1024
    m_AO: 0
    m_AOMaxDistance: 1
    m_CompAOExponent: 1
    m_CompAOExponentDirect: 0
    m_Padding: 2
    m_LightmapParameters: {fileID: 0}
    m_LightmapsBakeMode: 1
    m_TextureCompression: 1
    m_FinalGather: 0
    m_FinalGatherFiltering: 1
    m_FinalGatherRayCount: 256
    m_ReflectionCompression: 2
    m_MixedBakeMode: 2
    m_BakeBackend: 1
    m_PVRSampling: 1
    m_PVRDirectSampleCount: 32
    m_PVRSampleCount: 500
    m_PVRBounces: 2
    m_PVRFilterTypeDirect: 0
    m_PVRFilterTypeIndirect: 0
    m_PVRFilterTypeAO: 0
    m_PVRFilteringMode: 1
    m_PVRCulling: 1
    m_PVRFilteringGaussRadiusDirect: 1
    m_PVRFilteringGaussRadiusIndirect: 5
    m_PVRFilteringGaussRadiusAO: 2
    m_PVRFilteringAtrousPositionSigmaDirect: 0.5
    m_PVRFilteringAtrousPositionSigmaIndirect: 2
    m_PVRFilteringAtrousPositionSigmaAO: 1
    m_ShowResolutionOverlay: 1
  m_LightingDataAsset: {fileID: 0}
  m_UseShadowmask: 1
--- !u!196 &4
NavMeshSettings:
  serializedVersion: 2
  m_ObjectHideFlags: 0
  m_BuildSettings:
    serializedVersion: 2
    agentTypeID: 0
    agentRadius: 0.5
    agentHeight: 2
    agentSlope: 45
    agentClimb: 0.4
    ledgeDropHeight: 0
    maxJumpAcrossDistance: 0
    minRegionArea: 2
    manualCellSize: 0
    cellSize: 0.16666667
    manualTileSize: 0
    tileSize: 256
    accuratePlacement: 0
    debug:
      m_Flags: 0
  m_NavMeshData: {fileID: 0}
--- !u!1 &959487331
GameObject:
  m_ObjectHideFlags: 0
  m_CorrespondingSourceObject: {fileID: 0}
  m_PrefabInstance: {fileID: 0}
  m_PrefabAsset: {fileID: 0}
  serializedVersion: 6
  m_Component:
  - component: {fileID: 959487334}
  - component: {fileID: 959487333}
  - component: {fileID: 959487332}
  m_Layer: 0
  m_Name: New Sprite
  m_TagString: Untagged
  m_Icon: {fileID: 0}
  m_NavMeshLayer: 0
  m_StaticEditorFlags: 0
  m_IsActive: 1
--- !u!50 &959487332
Rigidbody2D:
  serializedVersion: 4
  m_ObjectHideFlags: 0
  m_CorrespondingSourceObject: {fileID: 0}
  m_PrefabInstance: {fileID: 0}
  m_PrefabAsset: {fileID: 0}
  m_GameObject: {fileID: 959487331}
  m_BodyType: 0
  m_Simulated: 1
  m_UseFullKinematicContacts: 0
  m_UseAutoMass: 0
  m_Mass: 1
  m_LinearDrag: 0
  m_AngularDrag: 0.05
  m_GravityScale: 1
  m_Material: {fileID: 0}
  m_Interpolate: 0
  m_SleepingMode: 1
  m_CollisionDetection: 0
  m_Constraints: 0
--- !u!212 &959487333
SpriteRenderer:
  m_ObjectHideFlags: 0
  m_CorrespondingSourceObject: {fileID: 0}
  m_PrefabInstance: {fileID: 0}
  m_PrefabAsset: {fileID: 0}
  m_GameObject: {fileID: 959487331}
  m_Enabled: 1
  m_CastShadows: 0
  m_ReceiveShadows: 0
  m_DynamicOccludee: 1
  m_MotionVectors: 1
  m_LightProbeUsage: 1
  m_ReflectionProbeUsage: 1
  m_RenderingLayerMask: 1
  m_RendererPriority: 0
  m_Materials:
  - {fileID: 10754, guid: 0000000000000000f000000000000000, type: 0}
  m_StaticBatchInfo:
    firstSubMesh: 0
    subMeshCount: 0
  m_StaticBatchRoot: {fileID: 0}
  m_ProbeAnchor: {fileID: 0}
  m_LightProbeVolumeOverride: {fileID: 0}
  m_ScaleInLightmap: 1
  m_PreserveUVs: 0
  m_IgnoreNormalsForChartDetection: 0
  m_ImportantGI: 0
  m_StitchLightmapSeams: 0
  m_SelectedEditorRenderState: 0
  m_MinimumChartSize: 4
  m_AutoUVMaxDistance: 0.5
  m_AutoUVMaxAngle: 89
  m_LightmapParameters: {fileID: 0}
  m_SortingLayerID: 0
  m_SortingLayer: 0
  m_SortingOrder: 0
  m_Sprite: {fileID: 21300000, guid: bd3ddab8f7379f0438dbcfa093654c24, type: 3}
  m_Color: {r: 1, g: 1, b: 1, a: 1}
  m_FlipX: 0
  m_FlipY: 0
  m_DrawMode: 0
  m_Size: {x: 1, y: 1}
  m_AdaptiveModeThreshold: 0.5
  m_SpriteTileMode: 0
  m_WasSpriteAssigned: 1
  m_MaskInteraction: 0
  m_SpriteSortPoint: 0
--- !u!4 &959487334
Transform:
  m_ObjectHideFlags: 0
  m_CorrespondingSourceObject: {fileID: 0}
  m_PrefabInstance: {fileID: 0}
  m_PrefabAsset: {fileID: 0}
  m_GameObject: {fileID: 959487331}
  m_LocalRotation: {x: 0, y: 0, z: 0, w: 1}
  m_LocalPosition: {x: 0, y: 3.56, z: 0}
  m_LocalScale: {x: 1, y: 1, z: 1}
  m_Children: []
  m_Father: {fileID: 0}
  m_RootOrder: 3
  m_LocalEulerAnglesHint: {x: 0, y: 0, z: 0}
--- !u!1 &1085296237
GameObject:
  m_ObjectHideFlags: 0
  m_CorrespondingSourceObject: {fileID: 0}
  m_PrefabInstance: {fileID: 0}
  m_PrefabAsset: {fileID: 0}
  serializedVersion: 6
  m_Component:
  - component: {fileID: 1085296240}
  - component: {fileID: 1085296239}
  - component: {fileID: 1085296238}
  m_Layer: 0
  m_Name: Main Camera
  m_TagString: MainCamera
  m_Icon: {fileID: 0}
  m_NavMeshLayer: 0
  m_StaticEditorFlags: 0
  m_IsActive: 1
--- !u!81 &1085296238
AudioListener:
  m_ObjectHideFlags: 0
  m_CorrespondingSourceObject: {fileID: 0}
  m_PrefabInstance: {fileID: 0}
  m_PrefabAsset: {fileID: 0}
  m_GameObject: {fileID: 1085296237}
  m_Enabled: 1
--- !u!20 &1085296239
Camera:
  m_ObjectHideFlags: 0
  m_CorrespondingSourceObject: {fileID: 0}
  m_PrefabInstance: {fileID: 0}
  m_PrefabAsset: {fileID: 0}
  m_GameObject: {fileID: 1085296237}
  m_Enabled: 1
  serializedVersion: 2
  m_ClearFlags: 1
  m_BackGroundColor: {r: 0.19215687, g: 0.3019608, b: 0.4745098, a: 0}
  m_projectionMatrixMode: 1
  m_SensorSize: {x: 36, y: 24}
  m_LensShift: {x: 0, y: 0}
  m_GateFitMode: 2
  m_FocalLength: 50
  m_NormalizedViewPortRect:
    serializedVersion: 2
    x: 0
    y: 0
    width: 1
    height: 1
  near clip plane: 0.3
  far clip plane: 1000
  field of view: 60
  orthographic: 1
  orthographic size: 5
  m_Depth: -1
  m_CullingMask:
    serializedVersion: 2
    m_Bits: 4294967295
  m_RenderingPath: -1
  m_TargetTexture: {fileID: 0}
  m_TargetDisplay: 0
  m_TargetEye: 3
  m_HDR: 1
  m_AllowMSAA: 1
  m_AllowDynamicResolution: 0
  m_ForceIntoRT: 0
  m_OcclusionCulling: 1
  m_StereoConvergence: 10
  m_StereoSeparation: 0.022
--- !u!4 &1085296240
Transform:
  m_ObjectHideFlags: 0
  m_CorrespondingSourceObject: {fileID: 0}
  m_PrefabInstance: {fileID: 0}
  m_PrefabAsset: {fileID: 0}
  m_GameObject: {fileID: 1085296237}
  m_LocalRotation: {x: 0, y: 0, z: 0, w: 1}
  m_LocalPosition: {x: 0, y: 0, z: -10}
  m_LocalScale: {x: 1, y: 1, z: 1}
  m_Children: []
  m_Father: {fileID: 0}
  m_RootOrder: 0
  m_LocalEulerAnglesHint: {x: 0, y: 0, z: 0}
--- !u!1001 &4198760059834372048
PrefabInstance:
  m_ObjectHideFlags: 0
  serializedVersion: 2
  m_Modification:
    m_TransformParent: {fileID: 0}
    m_Modifications:
    - target: {fileID: 2769590567767619779, guid: 09a7c039df9f6854c80347c87bc068f2,
        type: 3}
      propertyPath: m_Name
      value: TeleporterPrefab
      objectReference: {fileID: 0}
    - target: {fileID: 220625814806043217, guid: 09a7c039df9f6854c80347c87bc068f2,
        type: 3}
      propertyPath: m_LocalPosition.x
      value: 0
      objectReference: {fileID: 0}
    - target: {fileID: 220625814806043217, guid: 09a7c039df9f6854c80347c87bc068f2,
        type: 3}
      propertyPath: m_LocalPosition.y
      value: 0
      objectReference: {fileID: 0}
    - target: {fileID: 220625814806043217, guid: 09a7c039df9f6854c80347c87bc068f2,
        type: 3}
      propertyPath: m_LocalPosition.z
      value: 0
      objectReference: {fileID: 0}
    - target: {fileID: 220625814806043217, guid: 09a7c039df9f6854c80347c87bc068f2,
        type: 3}
      propertyPath: m_LocalRotation.x
      value: 0
      objectReference: {fileID: 0}
    - target: {fileID: 220625814806043217, guid: 09a7c039df9f6854c80347c87bc068f2,
        type: 3}
      propertyPath: m_LocalRotation.y
      value: 0
      objectReference: {fileID: 0}
    - target: {fileID: 220625814806043217, guid: 09a7c039df9f6854c80347c87bc068f2,
        type: 3}
      propertyPath: m_LocalRotation.z
      value: 0
      objectReference: {fileID: 0}
    - target: {fileID: 220625814806043217, guid: 09a7c039df9f6854c80347c87bc068f2,
        type: 3}
      propertyPath: m_LocalRotation.w
      value: 1
      objectReference: {fileID: 0}
    - target: {fileID: 220625814806043217, guid: 09a7c039df9f6854c80347c87bc068f2,
        type: 3}
      propertyPath: m_RootOrder
      value: 1
      objectReference: {fileID: 0}
    - target: {fileID: 220625814806043217, guid: 09a7c039df9f6854c80347c87bc068f2,
        type: 3}
      propertyPath: m_LocalEulerAnglesHint.x
      value: 0
      objectReference: {fileID: 0}
    - target: {fileID: 220625814806043217, guid: 09a7c039df9f6854c80347c87bc068f2,
        type: 3}
      propertyPath: m_LocalEulerAnglesHint.y
      value: 0
      objectReference: {fileID: 0}
    - target: {fileID: 220625814806043217, guid: 09a7c039df9f6854c80347c87bc068f2,
        type: 3}
      propertyPath: m_LocalEulerAnglesHint.z
      value: 0
      objectReference: {fileID: 0}
    m_RemovedComponents: []
  m_SourcePrefab: {fileID: 100100000, guid: 09a7c039df9f6854c80347c87bc068f2, type: 3}
--- !u!1001 &5516265337300595159
PrefabInstance:
  m_ObjectHideFlags: 0
  serializedVersion: 2
  m_Modification:
    m_TransformParent: {fileID: 0}
    m_Modifications:
    - target: {fileID: 2581273917034592381, guid: 9df7ca71fa73c584e8381bc29d629c10,
        type: 3}
      propertyPath: m_Name
      value: TeleporterTargetPrefab
      objectReference: {fileID: 0}
    - target: {fileID: 4331994275993785728, guid: 9df7ca71fa73c584e8381bc29d629c10,
        type: 3}
      propertyPath: m_LocalPosition.x
      value: 2
      objectReference: {fileID: 0}
    - target: {fileID: 4331994275993785728, guid: 9df7ca71fa73c584e8381bc29d629c10,
        type: 3}
      propertyPath: m_LocalPosition.y
      value: 0
      objectReference: {fileID: 0}
    - target: {fileID: 4331994275993785728, guid: 9df7ca71fa73c584e8381bc29d629c10,
        type: 3}
      propertyPath: m_LocalPosition.z
      value: 0
      objectReference: {fileID: 0}
    - target: {fileID: 4331994275993785728, guid: 9df7ca71fa73c584e8381bc29d629c10,
        type: 3}
      propertyPath: m_LocalRotation.x
      value: 0
      objectReference: {fileID: 0}
    - target: {fileID: 4331994275993785728, guid: 9df7ca71fa73c584e8381bc29d629c10,
        type: 3}
      propertyPath: m_LocalRotation.y
      value: 0
      objectReference: {fileID: 0}
    - target: {fileID: 4331994275993785728, guid: 9df7ca71fa73c584e8381bc29d629c10,
        type: 3}
      propertyPath: m_LocalRotation.z
      value: 0
      objectReference: {fileID: 0}
    - target: {fileID: 4331994275993785728, guid: 9df7ca71fa73c584e8381bc29d629c10,
        type: 3}
      propertyPath: m_LocalRotation.w
      value: 1
      objectReference: {fileID: 0}
    - target: {fileID: 4331994275993785728, guid: 9df7ca71fa73c584e8381bc29d629c10,
        type: 3}
      propertyPath: m_RootOrder
      value: 2
      objectReference: {fileID: 0}
    - target: {fileID: 4331994275993785728, guid: 9df7ca71fa73c584e8381bc29d629c10,
        type: 3}
      propertyPath: m_LocalEulerAnglesHint.x
      value: 0
      objectReference: {fileID: 0}
    - target: {fileID: 4331994275993785728, guid: 9df7ca71fa73c584e8381bc29d629c10,
        type: 3}
      propertyPath: m_LocalEulerAnglesHint.y
      value: 0
      objectReference: {fileID: 0}
    - target: {fileID: 4331994275993785728, guid: 9df7ca71fa73c584e8381bc29d629c10,
        type: 3}
      propertyPath: m_LocalEulerAnglesHint.z
      value: 0
      objectReference: {fileID: 0}
    m_RemovedComponents: []
  m_SourcePrefab: {fileID: 100100000, guid: 9df7ca71fa73c584e8381bc29d629c10, type: 3}
--- !u!1001 &8289384223148234013
PrefabInstance:
  m_ObjectHideFlags: 0
  serializedVersion: 2
  m_Modification:
    m_TransformParent: {fileID: 0}
    m_Modifications:
    - target: {fileID: 3010145483980559917, guid: 5b11c194027ed674f9b5b1b417b37a35,
        type: 3}
      propertyPath: m_Name
      value: BackgroundPrefab
      objectReference: {fileID: 0}
    - target: {fileID: 4462320997454811572, guid: 5b11c194027ed674f9b5b1b417b37a35,
        type: 3}
      propertyPath: m_LocalPosition.x
      value: -0.37190294
      objectReference: {fileID: 0}
    - target: {fileID: 4462320997454811572, guid: 5b11c194027ed674f9b5b1b417b37a35,
        type: 3}
      propertyPath: m_LocalPosition.y
      value: 0.36459932
      objectReference: {fileID: 0}
    - target: {fileID: 4462320997454811572, guid: 5b11c194027ed674f9b5b1b417b37a35,
        type: 3}
      propertyPath: m_LocalPosition.z
      value: 0.13984321
      objectReference: {fileID: 0}
    - target: {fileID: 4462320997454811572, guid: 5b11c194027ed674f9b5b1b417b37a35,
        type: 3}
      propertyPath: m_LocalRotation.x
      value: 0
      objectReference: {fileID: 0}
    - target: {fileID: 4462320997454811572, guid: 5b11c194027ed674f9b5b1b417b37a35,
        type: 3}
      propertyPath: m_LocalRotation.y
      value: 0
      objectReference: {fileID: 0}
    - target: {fileID: 4462320997454811572, guid: 5b11c194027ed674f9b5b1b417b37a35,
        type: 3}
      propertyPath: m_LocalRotation.z
      value: 0
      objectReference: {fileID: 0}
    - target: {fileID: 4462320997454811572, guid: 5b11c194027ed674f9b5b1b417b37a35,
        type: 3}
      propertyPath: m_LocalRotation.w
      value: 1
      objectReference: {fileID: 0}
    - target: {fileID: 4462320997454811572, guid: 5b11c194027ed674f9b5b1b417b37a35,
        type: 3}
      propertyPath: m_RootOrder
      value: 4
      objectReference: {fileID: 0}
    - target: {fileID: 4462320997454811572, guid: 5b11c194027ed674f9b5b1b417b37a35,
        type: 3}
      propertyPath: m_LocalEulerAnglesHint.x
      value: 0
      objectReference: {fileID: 0}
    - target: {fileID: 4462320997454811572, guid: 5b11c194027ed674f9b5b1b417b37a35,
        type: 3}
      propertyPath: m_LocalEulerAnglesHint.y
      value: 0
      objectReference: {fileID: 0}
    - target: {fileID: 4462320997454811572, guid: 5b11c194027ed674f9b5b1b417b37a35,
        type: 3}
      propertyPath: m_LocalEulerAnglesHint.z
      value: 0
      objectReference: {fileID: 0}
    - target: {fileID: 8866255129560420294, guid: 5b11c194027ed674f9b5b1b417b37a35,
        type: 3}
      propertyPath: m_LayerDescriptors.Array.data[0].m_Decorations.Array.data[725]
      value: 
      objectReference: {fileID: 0}
    - target: {fileID: 8866255129560420294, guid: 5b11c194027ed674f9b5b1b417b37a35,
        type: 3}
      propertyPath: m_LayerDescriptors.Array.data[0].m_Decorations.Array.data[726]
      value: 
      objectReference: {fileID: 0}
    - target: {fileID: 8866255129560420294, guid: 5b11c194027ed674f9b5b1b417b37a35,
        type: 3}
      propertyPath: m_LayerDescriptors.Array.data[0].m_Decorations.Array.data[727]
      value: 
      objectReference: {fileID: 0}
    - target: {fileID: 8866255129560420294, guid: 5b11c194027ed674f9b5b1b417b37a35,
        type: 3}
      propertyPath: m_LayerDescriptors.Array.data[0].m_Decorations.Array.data[728]
      value: 
      objectReference: {fileID: 0}
    - target: {fileID: 8866255129560420294, guid: 5b11c194027ed674f9b5b1b417b37a35,
        type: 3}
      propertyPath: m_LayerDescriptors.Array.data[0].m_Decorations.Array.data[729]
      value: 
      objectReference: {fileID: 0}
    - target: {fileID: 8866255129560420294, guid: 5b11c194027ed674f9b5b1b417b37a35,
        type: 3}
      propertyPath: m_LayerDescriptors.Array.data[0].m_Decorations.Array.data[730]
      value: 
      objectReference: {fileID: 0}
    - target: {fileID: 8866255129560420294, guid: 5b11c194027ed674f9b5b1b417b37a35,
        type: 3}
      propertyPath: m_LayerDescriptors.Array.data[0].m_Decorations.Array.data[731]
      value: 
      objectReference: {fileID: 0}
    - target: {fileID: 8866255129560420294, guid: 5b11c194027ed674f9b5b1b417b37a35,
        type: 3}
      propertyPath: m_LayerDescriptors.Array.data[0].m_Decorations.Array.data[732]
      value: 
      objectReference: {fileID: 0}
    - target: {fileID: 8866255129560420294, guid: 5b11c194027ed674f9b5b1b417b37a35,
        type: 3}
      propertyPath: m_LayerDescriptors.Array.data[0].m_Decorations.Array.data[733]
      value: 
      objectReference: {fileID: 0}
    - target: {fileID: 8866255129560420294, guid: 5b11c194027ed674f9b5b1b417b37a35,
        type: 3}
      propertyPath: m_LayerDescriptors.Array.data[0].m_Decorations.Array.data[734]
      value: 
      objectReference: {fileID: 0}
    - target: {fileID: 8866255129560420294, guid: 5b11c194027ed674f9b5b1b417b37a35,
        type: 3}
      propertyPath: m_LayerDescriptors.Array.data[0].m_Decorations.Array.data[735]
      value: 
      objectReference: {fileID: 0}
    - target: {fileID: 8866255129560420294, guid: 5b11c194027ed674f9b5b1b417b37a35,
        type: 3}
      propertyPath: m_LayerDescriptors.Array.data[0].m_Decorations.Array.data[736]
      value: 
      objectReference: {fileID: 0}
    - target: {fileID: 8866255129560420294, guid: 5b11c194027ed674f9b5b1b417b37a35,
        type: 3}
      propertyPath: m_LayerDescriptors.Array.data[0].m_Decorations.Array.data[737]
      value: 
      objectReference: {fileID: 0}
    - target: {fileID: 8866255129560420294, guid: 5b11c194027ed674f9b5b1b417b37a35,
        type: 3}
      propertyPath: m_LayerDescriptors.Array.data[0].m_Decorations.Array.data[738]
      value: 
      objectReference: {fileID: 0}
    - target: {fileID: 8866255129560420294, guid: 5b11c194027ed674f9b5b1b417b37a35,
        type: 3}
      propertyPath: m_LayerDescriptors.Array.data[0].m_Decorations.Array.data[739]
      value: 
      objectReference: {fileID: 0}
    - target: {fileID: 8866255129560420294, guid: 5b11c194027ed674f9b5b1b417b37a35,
        type: 3}
      propertyPath: m_LayerDescriptors.Array.data[0].m_Decorations.Array.data[740]
      value: 
      objectReference: {fileID: 0}
    - target: {fileID: 8866255129560420294, guid: 5b11c194027ed674f9b5b1b417b37a35,
        type: 3}
      propertyPath: m_LayerDescriptors.Array.data[0].m_Decorations.Array.data[741]
      value: 
      objectReference: {fileID: 0}
    - target: {fileID: 8866255129560420294, guid: 5b11c194027ed674f9b5b1b417b37a35,
        type: 3}
      propertyPath: m_LayerDescriptors.Array.data[0].m_Decorations.Array.data[742]
      value: 
      objectReference: {fileID: 0}
    - target: {fileID: 8866255129560420294, guid: 5b11c194027ed674f9b5b1b417b37a35,
        type: 3}
      propertyPath: m_LayerDescriptors.Array.data[0].m_Decorations.Array.data[743]
      value: 
      objectReference: {fileID: 0}
    - target: {fileID: 8866255129560420294, guid: 5b11c194027ed674f9b5b1b417b37a35,
        type: 3}
      propertyPath: m_LayerDescriptors.Array.data[0].m_Decorations.Array.data[744]
      value: 
      objectReference: {fileID: 0}
    - target: {fileID: 8866255129560420294, guid: 5b11c194027ed674f9b5b1b417b37a35,
        type: 3}
      propertyPath: m_LayerDescriptors.Array.data[0].m_Decorations.Array.data[745]
      value: 
      objectReference: {fileID: 0}
    - target: {fileID: 8866255129560420294, guid: 5b11c194027ed674f9b5b1b417b37a35,
        type: 3}
      propertyPath: m_LayerDescriptors.Array.data[0].m_Decorations.Array.data[746]
      value: 
      objectReference: {fileID: 0}
    - target: {fileID: 8866255129560420294, guid: 5b11c194027ed674f9b5b1b417b37a35,
        type: 3}
      propertyPath: m_LayerDescriptors.Array.data[0].m_Decorations.Array.data[747]
      value: 
      objectReference: {fileID: 0}
    - target: {fileID: 8866255129560420294, guid: 5b11c194027ed674f9b5b1b417b37a35,
        type: 3}
      propertyPath: m_LayerDescriptors.Array.data[0].m_Decorations.Array.data[748]
      value: 
      objectReference: {fileID: 0}
    - target: {fileID: 8866255129560420294, guid: 5b11c194027ed674f9b5b1b417b37a35,
        type: 3}
      propertyPath: m_LayerDescriptors.Array.data[0].m_Decorations.Array.data[749]
      value: 
      objectReference: {fileID: 0}
    - target: {fileID: 8866255129560420294, guid: 5b11c194027ed674f9b5b1b417b37a35,
        type: 3}
      propertyPath: m_LayerDescriptors.Array.data[0].m_Decorations.Array.data[750]
      value: 
      objectReference: {fileID: 0}
    - target: {fileID: 8866255129560420294, guid: 5b11c194027ed674f9b5b1b417b37a35,
        type: 3}
      propertyPath: m_LayerDescriptors.Array.data[0].m_Decorations.Array.data[751]
      value: 
      objectReference: {fileID: 0}
    - target: {fileID: 8866255129560420294, guid: 5b11c194027ed674f9b5b1b417b37a35,
        type: 3}
      propertyPath: m_LayerDescriptors.Array.data[0].m_Decorations.Array.data[752]
      value: 
      objectReference: {fileID: 0}
    - target: {fileID: 8866255129560420294, guid: 5b11c194027ed674f9b5b1b417b37a35,
        type: 3}
      propertyPath: m_LayerDescriptors.Array.data[0].m_Decorations.Array.data[753]
      value: 
      objectReference: {fileID: 0}
    - target: {fileID: 8866255129560420294, guid: 5b11c194027ed674f9b5b1b417b37a35,
        type: 3}
      propertyPath: m_LayerDescriptors.Array.data[0].m_Decorations.Array.data[754]
      value: 
      objectReference: {fileID: 0}
    - target: {fileID: 8866255129560420294, guid: 5b11c194027ed674f9b5b1b417b37a35,
        type: 3}
      propertyPath: m_LayerDescriptors.Array.data[0].m_Decorations.Array.data[755]
      value: 
      objectReference: {fileID: 0}
    - target: {fileID: 8866255129560420294, guid: 5b11c194027ed674f9b5b1b417b37a35,
        type: 3}
      propertyPath: m_LayerDescriptors.Array.data[0].m_Decorations.Array.data[756]
      value: 
      objectReference: {fileID: 0}
    - target: {fileID: 8866255129560420294, guid: 5b11c194027ed674f9b5b1b417b37a35,
        type: 3}
      propertyPath: m_LayerDescriptors.Array.data[0].m_Decorations.Array.data[757]
      value: 
      objectReference: {fileID: 0}
    - target: {fileID: 8866255129560420294, guid: 5b11c194027ed674f9b5b1b417b37a35,
        type: 3}
      propertyPath: m_LayerDescriptors.Array.data[0].m_Decorations.Array.data[758]
      value: 
      objectReference: {fileID: 0}
    - target: {fileID: 8866255129560420294, guid: 5b11c194027ed674f9b5b1b417b37a35,
        type: 3}
      propertyPath: m_LayerDescriptors.Array.data[0].m_Decorations.Array.data[759]
      value: 
      objectReference: {fileID: 0}
    - target: {fileID: 8866255129560420294, guid: 5b11c194027ed674f9b5b1b417b37a35,
        type: 3}
      propertyPath: m_LayerDescriptors.Array.data[0].m_Decorations.Array.data[760]
      value: 
      objectReference: {fileID: 0}
    - target: {fileID: 8866255129560420294, guid: 5b11c194027ed674f9b5b1b417b37a35,
        type: 3}
      propertyPath: m_LayerDescriptors.Array.data[0].m_Decorations.Array.data[761]
      value: 
      objectReference: {fileID: 0}
    - target: {fileID: 8866255129560420294, guid: 5b11c194027ed674f9b5b1b417b37a35,
        type: 3}
      propertyPath: m_LayerDescriptors.Array.data[1].m_Decorations.Array.data[1266]
      value: 
      objectReference: {fileID: 0}
    - target: {fileID: 8866255129560420294, guid: 5b11c194027ed674f9b5b1b417b37a35,
        type: 3}
      propertyPath: m_LayerDescriptors.Array.data[1].m_Decorations.Array.data[1267]
      value: 
      objectReference: {fileID: 0}
    - target: {fileID: 8866255129560420294, guid: 5b11c194027ed674f9b5b1b417b37a35,
        type: 3}
      propertyPath: m_LayerDescriptors.Array.data[1].m_Decorations.Array.data[1268]
      value: 
      objectReference: {fileID: 0}
    - target: {fileID: 8866255129560420294, guid: 5b11c194027ed674f9b5b1b417b37a35,
        type: 3}
      propertyPath: m_LayerDescriptors.Array.data[1].m_Decorations.Array.data[1269]
      value: 
      objectReference: {fileID: 0}
    - target: {fileID: 8866255129560420294, guid: 5b11c194027ed674f9b5b1b417b37a35,
        type: 3}
      propertyPath: m_LayerDescriptors.Array.data[1].m_Decorations.Array.data[1270]
      value: 
      objectReference: {fileID: 0}
    - target: {fileID: 8866255129560420294, guid: 5b11c194027ed674f9b5b1b417b37a35,
        type: 3}
      propertyPath: m_LayerDescriptors.Array.data[1].m_Decorations.Array.data[1271]
      value: 
      objectReference: {fileID: 0}
    - target: {fileID: 8866255129560420294, guid: 5b11c194027ed674f9b5b1b417b37a35,
        type: 3}
      propertyPath: m_LayerDescriptors.Array.data[1].m_Decorations.Array.data[1272]
      value: 
      objectReference: {fileID: 0}
    - target: {fileID: 8866255129560420294, guid: 5b11c194027ed674f9b5b1b417b37a35,
        type: 3}
      propertyPath: m_LayerDescriptors.Array.data[1].m_Decorations.Array.data[1273]
      value: 
      objectReference: {fileID: 0}
    - target: {fileID: 8866255129560420294, guid: 5b11c194027ed674f9b5b1b417b37a35,
        type: 3}
      propertyPath: m_LayerDescriptors.Array.data[1].m_Decorations.Array.data[1274]
      value: 
      objectReference: {fileID: 0}
    - target: {fileID: 8866255129560420294, guid: 5b11c194027ed674f9b5b1b417b37a35,
        type: 3}
      propertyPath: m_LayerDescriptors.Array.data[1].m_Decorations.Array.data[1275]
      value: 
      objectReference: {fileID: 0}
    - target: {fileID: 8866255129560420294, guid: 5b11c194027ed674f9b5b1b417b37a35,
        type: 3}
      propertyPath: m_LayerDescriptors.Array.data[1].m_Decorations.Array.data[1276]
      value: 
      objectReference: {fileID: 0}
    - target: {fileID: 8866255129560420294, guid: 5b11c194027ed674f9b5b1b417b37a35,
        type: 3}
      propertyPath: m_LayerDescriptors.Array.data[1].m_Decorations.Array.data[1277]
      value: 
      objectReference: {fileID: 0}
    - target: {fileID: 8866255129560420294, guid: 5b11c194027ed674f9b5b1b417b37a35,
        type: 3}
      propertyPath: m_LayerDescriptors.Array.data[1].m_Decorations.Array.data[1278]
      value: 
      objectReference: {fileID: 0}
    - target: {fileID: 8866255129560420294, guid: 5b11c194027ed674f9b5b1b417b37a35,
        type: 3}
      propertyPath: m_LayerDescriptors.Array.data[1].m_Decorations.Array.data[1279]
      value: 
      objectReference: {fileID: 0}
    - target: {fileID: 8866255129560420294, guid: 5b11c194027ed674f9b5b1b417b37a35,
        type: 3}
      propertyPath: m_LayerDescriptors.Array.data[1].m_Decorations.Array.data[1280]
      value: 
      objectReference: {fileID: 0}
    - target: {fileID: 8866255129560420294, guid: 5b11c194027ed674f9b5b1b417b37a35,
        type: 3}
      propertyPath: m_LayerDescriptors.Array.data[1].m_Decorations.Array.data[1281]
      value: 
      objectReference: {fileID: 0}
    - target: {fileID: 8866255129560420294, guid: 5b11c194027ed674f9b5b1b417b37a35,
        type: 3}
      propertyPath: m_LayerDescriptors.Array.data[1].m_Decorations.Array.data[1282]
      value: 
      objectReference: {fileID: 0}
    - target: {fileID: 8866255129560420294, guid: 5b11c194027ed674f9b5b1b417b37a35,
        type: 3}
      propertyPath: m_LayerDescriptors.Array.data[1].m_Decorations.Array.data[1283]
      value: 
      objectReference: {fileID: 0}
    - target: {fileID: 8866255129560420294, guid: 5b11c194027ed674f9b5b1b417b37a35,
        type: 3}
      propertyPath: m_LayerDescriptors.Array.data[1].m_Decorations.Array.data[1284]
      value: 
      objectReference: {fileID: 0}
    - target: {fileID: 8866255129560420294, guid: 5b11c194027ed674f9b5b1b417b37a35,
        type: 3}
      propertyPath: m_LayerDescriptors.Array.data[1].m_Decorations.Array.data[1285]
      value: 
      objectReference: {fileID: 0}
    - target: {fileID: 8866255129560420294, guid: 5b11c194027ed674f9b5b1b417b37a35,
        type: 3}
      propertyPath: m_LayerDescriptors.Array.data[1].m_Decorations.Array.data[1286]
      value: 
      objectReference: {fileID: 0}
    - target: {fileID: 8866255129560420294, guid: 5b11c194027ed674f9b5b1b417b37a35,
        type: 3}
      propertyPath: m_LayerDescriptors.Array.data[1].m_Decorations.Array.data[1287]
      value: 
      objectReference: {fileID: 0}
    - target: {fileID: 8866255129560420294, guid: 5b11c194027ed674f9b5b1b417b37a35,
        type: 3}
      propertyPath: m_LayerDescriptors.Array.data[1].m_Decorations.Array.data[1288]
      value: 
      objectReference: {fileID: 0}
    - target: {fileID: 8866255129560420294, guid: 5b11c194027ed674f9b5b1b417b37a35,
        type: 3}
      propertyPath: m_LayerDescriptors.Array.data[1].m_Decorations.Array.data[1289]
      value: 
      objectReference: {fileID: 0}
    - target: {fileID: 8866255129560420294, guid: 5b11c194027ed674f9b5b1b417b37a35,
        type: 3}
      propertyPath: m_LayerDescriptors.Array.data[1].m_Decorations.Array.data[1290]
      value: 
      objectReference: {fileID: 0}
    - target: {fileID: 8866255129560420294, guid: 5b11c194027ed674f9b5b1b417b37a35,
        type: 3}
      propertyPath: m_LayerDescriptors.Array.data[1].m_Decorations.Array.data[1291]
      value: 
      objectReference: {fileID: 0}
    - target: {fileID: 8866255129560420294, guid: 5b11c194027ed674f9b5b1b417b37a35,
        type: 3}
      propertyPath: m_LayerDescriptors.Array.data[1].m_Decorations.Array.data[1292]
      value: 
      objectReference: {fileID: 0}
    - target: {fileID: 8866255129560420294, guid: 5b11c194027ed674f9b5b1b417b37a35,
        type: 3}
      propertyPath: m_LayerDescriptors.Array.data[1].m_Decorations.Array.data[1293]
      value: 
      objectReference: {fileID: 0}
    - target: {fileID: 8866255129560420294, guid: 5b11c194027ed674f9b5b1b417b37a35,
        type: 3}
      propertyPath: m_LayerDescriptors.Array.data[1].m_Decorations.Array.data[1294]
      value: 
      objectReference: {fileID: 0}
    - target: {fileID: 8866255129560420294, guid: 5b11c194027ed674f9b5b1b417b37a35,
        type: 3}
      propertyPath: m_LayerDescriptors.Array.data[1].m_Decorations.Array.data[1295]
      value: 
      objectReference: {fileID: 0}
    - target: {fileID: 8866255129560420294, guid: 5b11c194027ed674f9b5b1b417b37a35,
        type: 3}
      propertyPath: m_LayerDescriptors.Array.data[1].m_Decorations.Array.data[1296]
      value: 
      objectReference: {fileID: 0}
    - target: {fileID: 8866255129560420294, guid: 5b11c194027ed674f9b5b1b417b37a35,
        type: 3}
      propertyPath: m_LayerDescriptors.Array.data[1].m_Decorations.Array.data[1297]
      value: 
      objectReference: {fileID: 0}
    - target: {fileID: 8866255129560420294, guid: 5b11c194027ed674f9b5b1b417b37a35,
        type: 3}
      propertyPath: m_LayerDescriptors.Array.data[1].m_Decorations.Array.data[1298]
      value: 
      objectReference: {fileID: 0}
    - target: {fileID: 8866255129560420294, guid: 5b11c194027ed674f9b5b1b417b37a35,
        type: 3}
      propertyPath: m_LayerDescriptors.Array.data[1].m_Decorations.Array.data[1299]
      value: 
      objectReference: {fileID: 0}
    - target: {fileID: 8866255129560420294, guid: 5b11c194027ed674f9b5b1b417b37a35,
        type: 3}
      propertyPath: m_LayerDescriptors.Array.data[1].m_Decorations.Array.data[1300]
      value: 
      objectReference: {fileID: 0}
    - target: {fileID: 8866255129560420294, guid: 5b11c194027ed674f9b5b1b417b37a35,
        type: 3}
      propertyPath: m_LayerDescriptors.Array.data[1].m_Decorations.Array.data[1301]
      value: 
      objectReference: {fileID: 0}
    - target: {fileID: 8866255129560420294, guid: 5b11c194027ed674f9b5b1b417b37a35,
        type: 3}
      propertyPath: m_LayerDescriptors.Array.data[1].m_Decorations.Array.data[1302]
      value: 
      objectReference: {fileID: 0}
    - target: {fileID: 8866255129560420294, guid: 5b11c194027ed674f9b5b1b417b37a35,
        type: 3}
      propertyPath: m_LayerDescriptors.Array.data[1].m_Decorations.Array.data[1303]
      value: 
      objectReference: {fileID: 0}
    - target: {fileID: 8866255129560420294, guid: 5b11c194027ed674f9b5b1b417b37a35,
        type: 3}
      propertyPath: m_LayerDescriptors.Array.data[1].m_Decorations.Array.data[1304]
      value: 
      objectReference: {fileID: 0}
    - target: {fileID: 8866255129560420294, guid: 5b11c194027ed674f9b5b1b417b37a35,
        type: 3}
      propertyPath: m_LayerDescriptors.Array.data[1].m_Decorations.Array.data[1305]
      value: 
      objectReference: {fileID: 0}
    - target: {fileID: 8866255129560420294, guid: 5b11c194027ed674f9b5b1b417b37a35,
        type: 3}
      propertyPath: m_LayerDescriptors.Array.data[1].m_Decorations.Array.data[1306]
      value: 
      objectReference: {fileID: 0}
    - target: {fileID: 8866255129560420294, guid: 5b11c194027ed674f9b5b1b417b37a35,
        type: 3}
      propertyPath: m_LayerDescriptors.Array.data[1].m_Decorations.Array.data[1307]
      value: 
      objectReference: {fileID: 0}
    - target: {fileID: 8866255129560420294, guid: 5b11c194027ed674f9b5b1b417b37a35,
        type: 3}
      propertyPath: m_LayerDescriptors.Array.data[1].m_Decorations.Array.data[1308]
      value: 
      objectReference: {fileID: 0}
    - target: {fileID: 8866255129560420294, guid: 5b11c194027ed674f9b5b1b417b37a35,
        type: 3}
      propertyPath: m_LayerDescriptors.Array.data[1].m_Decorations.Array.data[1309]
      value: 
      objectReference: {fileID: 0}
    - target: {fileID: 8866255129560420294, guid: 5b11c194027ed674f9b5b1b417b37a35,
        type: 3}
      propertyPath: m_LayerDescriptors.Array.data[1].m_Decorations.Array.data[1310]
      value: 
      objectReference: {fileID: 0}
    - target: {fileID: 8866255129560420294, guid: 5b11c194027ed674f9b5b1b417b37a35,
        type: 3}
      propertyPath: m_LayerDescriptors.Array.data[1].m_Decorations.Array.data[1311]
      value: 
      objectReference: {fileID: 0}
    - target: {fileID: 8866255129560420294, guid: 5b11c194027ed674f9b5b1b417b37a35,
        type: 3}
      propertyPath: m_LayerDescriptors.Array.data[1].m_Decorations.Array.data[1312]
      value: 
      objectReference: {fileID: 0}
    - target: {fileID: 8866255129560420294, guid: 5b11c194027ed674f9b5b1b417b37a35,
        type: 3}
      propertyPath: m_LayerDescriptors.Array.data[1].m_Decorations.Array.data[1313]
      value: 
      objectReference: {fileID: 0}
    - target: {fileID: 8866255129560420294, guid: 5b11c194027ed674f9b5b1b417b37a35,
        type: 3}
      propertyPath: m_LayerDescriptors.Array.data[1].m_Decorations.Array.data[1314]
      value: 
      objectReference: {fileID: 0}
    - target: {fileID: 8866255129560420294, guid: 5b11c194027ed674f9b5b1b417b37a35,
        type: 3}
      propertyPath: m_LayerDescriptors.Array.data[1].m_Decorations.Array.data[1315]
      value: 
      objectReference: {fileID: 0}
    - target: {fileID: 8866255129560420294, guid: 5b11c194027ed674f9b5b1b417b37a35,
        type: 3}
      propertyPath: m_LayerDescriptors.Array.data[1].m_Decorations.Array.data[1316]
      value: 
      objectReference: {fileID: 0}
    - target: {fileID: 8866255129560420294, guid: 5b11c194027ed674f9b5b1b417b37a35,
        type: 3}
      propertyPath: m_LayerDescriptors.Array.data[1].m_Decorations.Array.data[1317]
      value: 
      objectReference: {fileID: 0}
    - target: {fileID: 8866255129560420294, guid: 5b11c194027ed674f9b5b1b417b37a35,
        type: 3}
      propertyPath: m_LayerDescriptors.Array.data[1].m_Decorations.Array.data[1318]
      value: 
      objectReference: {fileID: 0}
    - target: {fileID: 8866255129560420294, guid: 5b11c194027ed674f9b5b1b417b37a35,
        type: 3}
      propertyPath: m_LayerDescriptors.Array.data[1].m_Decorations.Array.data[1319]
      value: 
      objectReference: {fileID: 0}
    - target: {fileID: 8866255129560420294, guid: 5b11c194027ed674f9b5b1b417b37a35,
        type: 3}
      propertyPath: m_Layers.Array.data[291]
      value: 
      objectReference: {fileID: 0}
    - target: {fileID: 8866255129560420294, guid: 5b11c194027ed674f9b5b1b417b37a35,
        type: 3}
      propertyPath: m_Layers.Array.data[292]
      value: 
      objectReference: {fileID: 0}
    - target: {fileID: 8866255129560420294, guid: 5b11c194027ed674f9b5b1b417b37a35,
        type: 3}
      propertyPath: m_Layers.Array.data[293]
      value: 
      objectReference: {fileID: 0}
    - target: {fileID: 8866255129560420294, guid: 5b11c194027ed674f9b5b1b417b37a35,
        type: 3}
      propertyPath: m_Layers.Array.data[294]
      value: 
      objectReference: {fileID: 0}
    - target: {fileID: 8866255129560420294, guid: 5b11c194027ed674f9b5b1b417b37a35,
        type: 3}
      propertyPath: m_Layers.Array.data[295]
      value: 
      objectReference: {fileID: 0}
    - target: {fileID: 8866255129560420294, guid: 5b11c194027ed674f9b5b1b417b37a35,
        type: 3}
      propertyPath: m_Layers.Array.data[296]
      value: 
      objectReference: {fileID: 0}
    - target: {fileID: 8866255129560420294, guid: 5b11c194027ed674f9b5b1b417b37a35,
        type: 3}
      propertyPath: m_Layers.Array.data[297]
      value: 
      objectReference: {fileID: 0}
    - target: {fileID: 8866255129560420294, guid: 5b11c194027ed674f9b5b1b417b37a35,
        type: 3}
      propertyPath: m_Layers.Array.data[298]
      value: 
      objectReference: {fileID: 0}
    - target: {fileID: 8866255129560420294, guid: 5b11c194027ed674f9b5b1b417b37a35,
        type: 3}
      propertyPath: m_Layers.Array.data[299]
      value: 
      objectReference: {fileID: 0}
    - target: {fileID: 8866255129560420294, guid: 5b11c194027ed674f9b5b1b417b37a35,
        type: 3}
      propertyPath: m_Layers.Array.data[300]
      value: 
      objectReference: {fileID: 0}
    - target: {fileID: 8866255129560420294, guid: 5b11c194027ed674f9b5b1b417b37a35,
        type: 3}
      propertyPath: m_Layers.Array.data[301]
      value: 
      objectReference: {fileID: 0}
    - target: {fileID: 8866255129560420294, guid: 5b11c194027ed674f9b5b1b417b37a35,
        type: 3}
      propertyPath: m_Layers.Array.data[302]
      value: 
      objectReference: {fileID: 0}
    - target: {fileID: 8866255129560420294, guid: 5b11c194027ed674f9b5b1b417b37a35,
        type: 3}
      propertyPath: m_Layers.Array.data[303]
      value: 
      objectReference: {fileID: 0}
    - target: {fileID: 8866255129560420294, guid: 5b11c194027ed674f9b5b1b417b37a35,
        type: 3}
      propertyPath: m_Layers.Array.data[304]
      value: 
      objectReference: {fileID: 0}
    - target: {fileID: 8866255129560420294, guid: 5b11c194027ed674f9b5b1b417b37a35,
        type: 3}
      propertyPath: m_Layers.Array.data[305]
      value: 
      objectReference: {fileID: 0}
    - target: {fileID: 8866255129560420294, guid: 5b11c194027ed674f9b5b1b417b37a35,
        type: 3}
      propertyPath: m_Layers.Array.data[306]
      value: 
      objectReference: {fileID: 0}
    - target: {fileID: 8866255129560420294, guid: 5b11c194027ed674f9b5b1b417b37a35,
        type: 3}
      propertyPath: m_Layers.Array.data[307]
      value: 
      objectReference: {fileID: 0}
    - target: {fileID: 8866255129560420294, guid: 5b11c194027ed674f9b5b1b417b37a35,
        type: 3}
      propertyPath: m_Layers.Array.data[308]
      value: 
      objectReference: {fileID: 0}
    m_RemovedComponents: []
  m_SourcePrefab: {fileID: 100100000, guid: 5b11c194027ed674f9b5b1b417b37a35, type: 3}
