%YAML 1.1
%TAG !u! tag:unity3d.com,2011:
--- !u!1 &1350680574080511144
GameObject:
  m_ObjectHideFlags: 0
  m_CorrespondingSourceObject: {fileID: 0}
  m_PrefabInstance: {fileID: 0}
  m_PrefabAsset: {fileID: 0}
  serializedVersion: 6
  m_Component:
  - component: {fileID: 8557714628675742359}
  - component: {fileID: 6133823684637650307}
  - component: {fileID: 7167949244885794870}
  m_Layer: 31
  m_Name: Layer1
  m_TagString: Untagged
  m_Icon: {fileID: 0}
  m_NavMeshLayer: 0
  m_StaticEditorFlags: 0
  m_IsActive: 1
--- !u!4 &8557714628675742359
Transform:
  m_ObjectHideFlags: 0
  m_CorrespondingSourceObject: {fileID: 0}
  m_PrefabInstance: {fileID: 0}
  m_PrefabAsset: {fileID: 0}
  m_GameObject: {fileID: 1350680574080511144}
  m_LocalRotation: {x: -0, y: -0, z: -0, w: 1}
  m_LocalPosition: {x: 0, y: 0, z: 0}
  m_LocalScale: {x: 1, y: 1, z: 1}
  m_Children: []
  m_Father: {fileID: 1671727296956704531}
  m_RootOrder: 0
  m_LocalEulerAnglesHint: {x: 0, y: 0, z: 0}
--- !u!1839735485 &6133823684637650307
Tilemap:
  m_ObjectHideFlags: 0
  m_CorrespondingSourceObject: {fileID: 0}
  m_PrefabInstance: {fileID: 0}
  m_PrefabAsset: {fileID: 0}
  m_GameObject: {fileID: 1350680574080511144}
  m_Enabled: 1
  m_Tiles:
  - first: {x: -1, y: -4, z: 0}
    second:
      m_TileIndex: 17
      m_TileSpriteIndex: 17
      m_TileMatrixIndex: 0
      m_TileColorIndex: 0
      m_ObjectToInstantiate: {fileID: 0}
      m_TileFlags: 1
      m_ColliderType: 1
  - first: {x: 0, y: -4, z: 0}
    second:
      m_TileIndex: 18
      m_TileSpriteIndex: 18
      m_TileMatrixIndex: 0
      m_TileColorIndex: 0
      m_ObjectToInstantiate: {fileID: 0}
      m_TileFlags: 1
      m_ColliderType: 1
  - first: {x: 1, y: -4, z: 0}
    second:
      m_TileIndex: 19
      m_TileSpriteIndex: 19
      m_TileMatrixIndex: 0
      m_TileColorIndex: 0
      m_ObjectToInstantiate: {fileID: 0}
      m_TileFlags: 1
      m_ColliderType: 1
  - first: {x: -1, y: -3, z: 0}
    second:
      m_TileIndex: 11
      m_TileSpriteIndex: 11
      m_TileMatrixIndex: 0
      m_TileColorIndex: 0
      m_ObjectToInstantiate: {fileID: 0}
      m_TileFlags: 1
      m_ColliderType: 1
  - first: {x: 0, y: -3, z: 0}
    second:
      m_TileIndex: 12
      m_TileSpriteIndex: 12
      m_TileMatrixIndex: 0
      m_TileColorIndex: 0
      m_ObjectToInstantiate: {fileID: 0}
      m_TileFlags: 1
      m_ColliderType: 1
  - first: {x: 1, y: -3, z: 0}
    second:
      m_TileIndex: 13
      m_TileSpriteIndex: 13
      m_TileMatrixIndex: 0
      m_TileColorIndex: 0
      m_ObjectToInstantiate: {fileID: 0}
      m_TileFlags: 1
      m_ColliderType: 1
  - first: {x: 2, y: -3, z: 0}
    second:
      m_TileIndex: 14
      m_TileSpriteIndex: 14
      m_TileMatrixIndex: 0
      m_TileColorIndex: 0
      m_ObjectToInstantiate: {fileID: 0}
      m_TileFlags: 1
      m_ColliderType: 1
  - first: {x: 3, y: -3, z: 0}
    second:
      m_TileIndex: 15
      m_TileSpriteIndex: 15
      m_TileMatrixIndex: 0
      m_TileColorIndex: 0
      m_ObjectToInstantiate: {fileID: 0}
      m_TileFlags: 1
      m_ColliderType: 1
  - first: {x: 4, y: -3, z: 0}
    second:
      m_TileIndex: 16
      m_TileSpriteIndex: 16
      m_TileMatrixIndex: 0
      m_TileColorIndex: 0
      m_ObjectToInstantiate: {fileID: 0}
      m_TileFlags: 1
      m_ColliderType: 1
  - first: {x: -1, y: -2, z: 0}
    second:
      m_TileIndex: 6
      m_TileSpriteIndex: 6
      m_TileMatrixIndex: 0
      m_TileColorIndex: 0
      m_ObjectToInstantiate: {fileID: 0}
      m_TileFlags: 1
      m_ColliderType: 1
  - first: {x: 0, y: -2, z: 0}
    second:
      m_TileIndex: 7
      m_TileSpriteIndex: 7
      m_TileMatrixIndex: 0
      m_TileColorIndex: 0
      m_ObjectToInstantiate: {fileID: 0}
      m_TileFlags: 1
      m_ColliderType: 1
  - first: {x: 1, y: -2, z: 0}
    second:
      m_TileIndex: 8
      m_TileSpriteIndex: 8
      m_TileMatrixIndex: 0
      m_TileColorIndex: 0
      m_ObjectToInstantiate: {fileID: 0}
      m_TileFlags: 1
      m_ColliderType: 1
  - first: {x: 2, y: -2, z: 0}
    second:
      m_TileIndex: 9
      m_TileSpriteIndex: 9
      m_TileMatrixIndex: 0
      m_TileColorIndex: 0
      m_ObjectToInstantiate: {fileID: 0}
      m_TileFlags: 1
      m_ColliderType: 1
  - first: {x: 4, y: -2, z: 0}
    second:
      m_TileIndex: 10
      m_TileSpriteIndex: 10
      m_TileMatrixIndex: 0
      m_TileColorIndex: 0
      m_ObjectToInstantiate: {fileID: 0}
      m_TileFlags: 1
      m_ColliderType: 1
  - first: {x: -1, y: -1, z: 0}
    second:
      m_TileIndex: 0
      m_TileSpriteIndex: 0
      m_TileMatrixIndex: 0
      m_TileColorIndex: 0
      m_ObjectToInstantiate: {fileID: 0}
      m_TileFlags: 1
      m_ColliderType: 1
  - first: {x: 0, y: -1, z: 0}
    second:
      m_TileIndex: 1
      m_TileSpriteIndex: 1
      m_TileMatrixIndex: 0
      m_TileColorIndex: 0
      m_ObjectToInstantiate: {fileID: 0}
      m_TileFlags: 1
      m_ColliderType: 1
  - first: {x: 1, y: -1, z: 0}
    second:
      m_TileIndex: 2
      m_TileSpriteIndex: 2
      m_TileMatrixIndex: 0
      m_TileColorIndex: 0
      m_ObjectToInstantiate: {fileID: 0}
      m_TileFlags: 1
      m_ColliderType: 1
  - first: {x: 2, y: -1, z: 0}
    second:
      m_TileIndex: 3
      m_TileSpriteIndex: 3
      m_TileMatrixIndex: 0
      m_TileColorIndex: 0
      m_ObjectToInstantiate: {fileID: 0}
      m_TileFlags: 1
      m_ColliderType: 1
  - first: {x: 3, y: -1, z: 0}
    second:
      m_TileIndex: 4
      m_TileSpriteIndex: 4
      m_TileMatrixIndex: 0
      m_TileColorIndex: 0
      m_ObjectToInstantiate: {fileID: 0}
      m_TileFlags: 1
      m_ColliderType: 1
  - first: {x: 4, y: -1, z: 0}
    second:
      m_TileIndex: 5
      m_TileSpriteIndex: 5
      m_TileMatrixIndex: 0
      m_TileColorIndex: 0
      m_ObjectToInstantiate: {fileID: 0}
      m_TileFlags: 1
      m_ColliderType: 1
  - first: {x: 1, y: 1, z: 0}
    second:
      m_TileIndex: 20
      m_TileSpriteIndex: 4294967295
      m_TileMatrixIndex: 0
      m_TileColorIndex: 0
      m_ObjectToInstantiate: {fileID: 0}
      m_TileFlags: 2
      m_ColliderType: 2
  m_AnimatedTiles: {}
  m_TileAssetArray:
  - m_RefCount: 1
    m_Data: {fileID: 11400000, guid: ace7e28e01d7a254a8286bd952383d54, type: 2}
  - m_RefCount: 1
    m_Data: {fileID: 11400000, guid: a91bfd0f5e1783b418c003d41874ba8f, type: 2}
  - m_RefCount: 1
    m_Data: {fileID: 11400000, guid: b3964d782b98e624d9c852d0875df4ba, type: 2}
  - m_RefCount: 1
    m_Data: {fileID: 11400000, guid: 96b7395d7f857374a8d39dcf09988b8e, type: 2}
  - m_RefCount: 1
    m_Data: {fileID: 11400000, guid: 53fb7ec579a6d4b4abfaa699142b8b71, type: 2}
  - m_RefCount: 1
    m_Data: {fileID: 11400000, guid: 8fa81005cd7ad4442ba1618a3ce9f34e, type: 2}
  - m_RefCount: 1
    m_Data: {fileID: 11400000, guid: 5945951950158c643816d95232e42a92, type: 2}
  - m_RefCount: 1
    m_Data: {fileID: 11400000, guid: aaad7941e8d3e3444b471ca071e42c60, type: 2}
  - m_RefCount: 1
    m_Data: {fileID: 11400000, guid: 986d34862a792dc4db81ab5ed544e211, type: 2}
  - m_RefCount: 1
    m_Data: {fileID: 11400000, guid: 79f655fe48b1a8546abb452e74c70187, type: 2}
  - m_RefCount: 1
    m_Data: {fileID: 11400000, guid: ca6f663d1bdf42f479f1baafacb8a8d8, type: 2}
  - m_RefCount: 1
    m_Data: {fileID: 11400000, guid: 1569f686c81a1fe42b41eba96321bba4, type: 2}
  - m_RefCount: 1
    m_Data: {fileID: 11400000, guid: c796ad30b5a23334383f0aae1db67fa6, type: 2}
  - m_RefCount: 1
    m_Data: {fileID: 11400000, guid: 3d611c806d0e2b84e8244c24d593dece, type: 2}
  - m_RefCount: 1
    m_Data: {fileID: 11400000, guid: 46c9c6e5008cfce41a2e44c606b316bc, type: 2}
  - m_RefCount: 1
    m_Data: {fileID: 11400000, guid: 7720e1d9b484fc643afc0bdce8800a4c, type: 2}
  - m_RefCount: 1
    m_Data: {fileID: 11400000, guid: b6a16bc0e2ad7af4eae441a79c0d5aac, type: 2}
  - m_RefCount: 1
    m_Data: {fileID: 11400000, guid: c4f7f05245d5986488bd2b457aa0d10f, type: 2}
  - m_RefCount: 1
    m_Data: {fileID: 11400000, guid: 8975551be65834447b8cad9011d7dd9a, type: 2}
  - m_RefCount: 1
    m_Data: {fileID: 11400000, guid: bf1752348d3b4df4896013a884aba3ba, type: 2}
  - m_RefCount: 1
    m_Data: {fileID: 11400000, guid: 4b161c74331664246bb1616c13493d87, type: 2}
  m_TileSpriteArray:
  - m_RefCount: 1
    m_Data: {fileID: 21300000, guid: 7ecc1352747fd654b9ea59fca0a33c25, type: 3}
  - m_RefCount: 1
    m_Data: {fileID: 21300002, guid: 7ecc1352747fd654b9ea59fca0a33c25, type: 3}
  - m_RefCount: 1
    m_Data: {fileID: 21300004, guid: 7ecc1352747fd654b9ea59fca0a33c25, type: 3}
  - m_RefCount: 1
    m_Data: {fileID: 21300006, guid: 7ecc1352747fd654b9ea59fca0a33c25, type: 3}
  - m_RefCount: 1
    m_Data: {fileID: 21300008, guid: 7ecc1352747fd654b9ea59fca0a33c25, type: 3}
  - m_RefCount: 1
    m_Data: {fileID: 21300010, guid: 7ecc1352747fd654b9ea59fca0a33c25, type: 3}
  - m_RefCount: 1
    m_Data: {fileID: 21300012, guid: 7ecc1352747fd654b9ea59fca0a33c25, type: 3}
  - m_RefCount: 1
    m_Data: {fileID: 21300014, guid: 7ecc1352747fd654b9ea59fca0a33c25, type: 3}
  - m_RefCount: 1
    m_Data: {fileID: 21300016, guid: 7ecc1352747fd654b9ea59fca0a33c25, type: 3}
  - m_RefCount: 1
    m_Data: {fileID: 21300018, guid: 7ecc1352747fd654b9ea59fca0a33c25, type: 3}
  - m_RefCount: 1
    m_Data: {fileID: 21300020, guid: 7ecc1352747fd654b9ea59fca0a33c25, type: 3}
  - m_RefCount: 1
    m_Data: {fileID: 21300022, guid: 7ecc1352747fd654b9ea59fca0a33c25, type: 3}
  - m_RefCount: 1
    m_Data: {fileID: 21300024, guid: 7ecc1352747fd654b9ea59fca0a33c25, type: 3}
  - m_RefCount: 1
    m_Data: {fileID: 21300026, guid: 7ecc1352747fd654b9ea59fca0a33c25, type: 3}
  - m_RefCount: 1
    m_Data: {fileID: 21300028, guid: 7ecc1352747fd654b9ea59fca0a33c25, type: 3}
  - m_RefCount: 1
    m_Data: {fileID: 21300030, guid: 7ecc1352747fd654b9ea59fca0a33c25, type: 3}
  - m_RefCount: 1
    m_Data: {fileID: 21300032, guid: 7ecc1352747fd654b9ea59fca0a33c25, type: 3}
  - m_RefCount: 1
    m_Data: {fileID: 21300034, guid: 7ecc1352747fd654b9ea59fca0a33c25, type: 3}
  - m_RefCount: 1
    m_Data: {fileID: 21300036, guid: 7ecc1352747fd654b9ea59fca0a33c25, type: 3}
  - m_RefCount: 1
    m_Data: {fileID: 21300038, guid: 7ecc1352747fd654b9ea59fca0a33c25, type: 3}
  m_TileMatrixArray:
  - m_RefCount: 21
    m_Data:
      e00: 1
      e01: 0
      e02: 0
      e03: 0
      e10: 0
      e11: 1
      e12: 0
      e13: 0
      e20: 0
      e21: 0
      e22: 1
      e23: 0
      e30: 0
      e31: 0
      e32: 0
      e33: 1
  m_TileColorArray:
  - m_RefCount: 21
    m_Data: {r: 1, g: 1, b: 1, a: 1}
  m_AnimationFrameRate: 1
  m_Color: {r: 1, g: 1, b: 1, a: 1}
  m_Origin: {x: -1, y: -4, z: 0}
  m_Size: {x: 6, y: 6, z: 1}
  m_TileAnchor: {x: 0.5, y: 0.5, z: 0}
  m_TileOrientation: 0
  m_TileOrientationMatrix:
    e00: 1
    e01: 0
    e02: 0
    e03: 0
    e10: 0
    e11: 1
    e12: 0
    e13: 0
    e20: 0
    e21: 0
    e22: 1
    e23: 0
    e30: 0
    e31: 0
    e32: 0
    e33: 1
--- !u!483693784 &7167949244885794870
TilemapRenderer:
  m_ObjectHideFlags: 0
  m_CorrespondingSourceObject: {fileID: 0}
  m_PrefabInstance: {fileID: 0}
  m_PrefabAsset: {fileID: 0}
  m_GameObject: {fileID: 1350680574080511144}
  m_Enabled: 0
  m_CastShadows: 0
  m_ReceiveShadows: 0
  m_DynamicOccludee: 0
  m_MotionVectors: 1
  m_LightProbeUsage: 0
  m_ReflectionProbeUsage: 0
  m_RenderingLayerMask: 1
  m_RendererPriority: 0
  m_Materials:
  - {fileID: 10754, guid: 0000000000000000f000000000000000, type: 0}
  m_StaticBatchInfo:
    firstSubMesh: 0
    subMeshCount: 0
  m_StaticBatchRoot: {fileID: 0}
  m_ProbeAnchor: {fileID: 0}
  m_LightProbeVolumeOverride: {fileID: 0}
  m_ScaleInLightmap: 1
  m_PreserveUVs: 0
  m_IgnoreNormalsForChartDetection: 0
  m_ImportantGI: 0
  m_StitchLightmapSeams: 0
  m_SelectedEditorRenderState: 0
  m_MinimumChartSize: 4
  m_AutoUVMaxDistance: 0.5
  m_AutoUVMaxAngle: 89
  m_LightmapParameters: {fileID: 0}
  m_SortingLayerID: 0
  m_SortingLayer: 0
  m_SortingOrder: 0
  m_ChunkSize: {x: 32, y: 32, z: 32}
  m_ChunkCullingBounds: {x: 0, y: 0, z: 0}
  m_MaxChunkCount: 16
  m_MaxFrameAge: 16
  m_SortOrder: 0
  m_Mode: 0
  m_DetectChunkCullingBounds: 0
  m_MaskInteraction: 0
--- !u!1 &3496121483996829668
GameObject:
  m_ObjectHideFlags: 0
  m_CorrespondingSourceObject: {fileID: 0}
  m_PrefabInstance: {fileID: 0}
  m_PrefabAsset: {fileID: 0}
  serializedVersion: 6
  m_Component:
  - component: {fileID: 1671727296956704531}
  - component: {fileID: 379289618947450781}
  m_Layer: 31
  m_Name: HeartTiles
  m_TagString: Untagged
  m_Icon: {fileID: 0}
  m_NavMeshLayer: 0
  m_StaticEditorFlags: 0
  m_IsActive: 1
--- !u!4 &1671727296956704531
Transform:
  m_ObjectHideFlags: 0
  m_CorrespondingSourceObject: {fileID: 0}
  m_PrefabInstance: {fileID: 0}
  m_PrefabAsset: {fileID: 0}
  m_GameObject: {fileID: 3496121483996829668}
  m_LocalRotation: {x: 0, y: 0, z: 0, w: 1}
  m_LocalPosition: {x: 0, y: 0, z: 0}
  m_LocalScale: {x: 1, y: 1, z: 1}
  m_Children:
  - {fileID: 8557714628675742359}
  m_Father: {fileID: 0}
  m_RootOrder: 0
  m_LocalEulerAnglesHint: {x: 0, y: 0, z: 0}
--- !u!156049354 &379289618947450781
Grid:
  m_ObjectHideFlags: 0
  m_CorrespondingSourceObject: {fileID: 0}
  m_PrefabInstance: {fileID: 0}
  m_PrefabAsset: {fileID: 0}
  m_GameObject: {fileID: 3496121483996829668}
  m_Enabled: 1
  m_CellSize: {x: 1, y: 1, z: 0}
  m_CellGap: {x: 0, y: 0, z: 0}
  m_CellLayout: 0
  m_CellSwizzle: 0
--- !u!114 &114033914705399156
MonoBehaviour:
  m_ObjectHideFlags: 0
  m_CorrespondingSourceObject: {fileID: 0}
  m_PrefabInstance: {fileID: 0}
  m_PrefabAsset: {fileID: 0}
  m_GameObject: {fileID: 0}
  m_Enabled: 1
  m_EditorHideFlags: 0
  m_Script: {fileID: 12395, guid: 0000000000000000e000000000000000, type: 0}
  m_Name: Palette Settings
  m_EditorClassIdentifier: 
  cellSizing: 0
